English Mondarchs and merriages
…
How many wives each king had, and how many had multiple wives?

monarchs |> 
    count(ruler_name, sort = TRUE)

# A tibble: 62 × 2
   ruler_name                    n
   <chr>                     <int>
 1 "Henry VIII"                  6
 2 "Edward the Elder"            3
 3 "Cnut"                        2
 4 "Edgar the Peaceful"          2
 5 "Edmund\nthe Magnificent"     2
 6 "Edward I"                    2
 7 "George IV"                   2
 8 "Harold Godwinson"            2
 9 "Henry I"                     2
10 "Henry IV"                    2
# ℹ 52 more rows
…
